^D:\IT\TOP\HOMEWORK\PROJECTS C++\TASKTEMPLATEARRAY\TASKTEMPLATEARRAY\TASKTEMPLATEARRAY.CPP
C:\WINDOWS\GLOBALIZATION\SORTING\SORTDEFAULT.NLS
D:\PROGRAM FILES\VISUAL\VC\TOOLS\MSVC\14.31.31103\BIN\HOSTX64\X64\1033\CLUI.DLL
C:\WINDOWS\SYSTEM32\TZRES.DLL
D:\PROGRAM FILES\VISUAL\VC\TOOLS\MSVC\14.31.31103\INCLUDE\IOSTREAM
D:\PROGRAM FILES\VISUAL\VC\TOOLS\MSVC\14.31.31103\INCLUDE\YVALS_CORE.H
D:\PROGRAM FILES\VISUAL\VC\TOOLS\MSVC\14.31.31103\INCLUDE\VCRUNTIME.H
D:\PROGRAM FILES\VISUAL\VC\TOOLS\MSVC\14.31.31103\INCLUDE\SAL.H
D:\PROGRAM FILES\VISUAL\VC\TOOLS\MSVC\14.31.31103\INCLUDE\CONCURRENCYSAL.H
D:\PROGRAM FILES\VISUAL\VC\TOOLS\MSVC\14.31.31103\INCLUDE\VADEFS.H
D:\PROGRAM FILES\VISUAL\VC\TOOLS\MSVC\14.31.31103\INCLUDE\XKEYCHECK.H
D:\PROGRAM FILES\VISUAL\VC\TOOLS\MSVC\14.31.31103\INCLUDE\ISTREAM
D:\PROGRAM FILES\VISUAL\VC\TOOLS\MSVC\14.31.31103\INCLUDE\OSTREAM
D:\PROGRAM FILES\VISUAL\VC\TOOLS\MSVC\14.31.31103\INCLUDE\IOS
D:\PROGRAM FILES\VISUAL\VC\TOOLS\MSVC\14.31.31103\INCLUDE\XLOCNUM
D:\PROGRAM FILES\VISUAL\VC\TOOLS\MSVC\14.31.31103\INCLUDE\CLIMITS
D:\PROGRAM FILES\VISUAL\VC\TOOLS\MSVC\14.31.31103\INCLUDE\LIMITS.H
D:\PROGRAM FILES\VISUAL\VC\TOOLS\MSVC\14.31.31103\INCLUDE\CMATH
D:\PROGRAM FILES\VISUAL\VC\TOOLS\MSVC\14.31.31103\INCLUDE\YVALS.H
C:\PROGRAM FILES (X86)\WINDOWS KITS\10\INCLUDE\10.0.19041.0\UCRT\CRTDBG.H
C:\PROGRAM FILES (X86)\WINDOWS KITS\10\INCLUDE\10.0.19041.0\UCRT\CORECRT.H
D:\PROGRAM FILES\VISUAL\VC\TOOLS\MSVC\14.31.31103\INCLUDE\VCRUNTIME_NEW_DEBUG.H
D:\PROGRAM FILES\VISUAL\VC\TOOLS\MSVC\14.31.31103\INCLUDE\VCRUNTIME_NEW.H
D:\PROGRAM FILES\VISUAL\VC\TOOLS\MSVC\14.31.31103\INCLUDE\CRTDEFS.H
D:\PROGRAM FILES\VISUAL\VC\TOOLS\MSVC\14.31.31103\INCLUDE\USE_ANSI.H
D:\PROGRAM FILES\VISUAL\VC\TOOLS\MSVC\14.31.31103\INCLUDE\CSTDLIB
C:\PROGRAM FILES (X86)\WINDOWS KITS\10\INCLUDE\10.0.19041.0\UCRT\MATH.H
C:\PROGRAM FILES (X86)\WINDOWS KITS\10\INCLUDE\10.0.19041.0\UCRT\CORECRT_MATH.H
C:\PROGRAM FILES (X86)\WINDOWS KITS\10\INCLUDE\10.0.19041.0\UCRT\STDLIB.H
C:\PROGRAM FILES (X86)\WINDOWS KITS\10\INCLUDE\10.0.19041.0\UCRT\CORECRT_MALLOC.H
C:\PROGRAM FILES (X86)\WINDOWS KITS\10\INCLUDE\10.0.19041.0\UCRT\CORECRT_SEARCH.H
C:\PROGRAM FILES (X86)\WINDOWS KITS\10\INCLUDE\10.0.19041.0\UCRT\STDDEF.H
C:\PROGRAM FILES (X86)\WINDOWS KITS\10\INCLUDE\10.0.19041.0\UCRT\CORECRT_WSTDLIB.H
D:\PROGRAM FILES\VISUAL\VC\TOOLS\MSVC\14.31.31103\INCLUDE\XTR1COMMON
D:\PROGRAM FILES\VISUAL\VC\TOOLS\MSVC\14.31.31103\INCLUDE\INTRIN0.H
D:\PROGRAM FILES\VISUAL\VC\TOOLS\MSVC\14.31.31103\INCLUDE\INTRIN0.INL.H
D:\PROGRAM FILES\VISUAL\VC\TOOLS\MSVC\14.31.31103\INCLUDE\CSTDIO
C:\PROGRAM FILES (X86)\WINDOWS KITS\10\INCLUDE\10.0.19041.0\UCRT\STDIO.H
C:\PROGRAM FILES (X86)\WINDOWS KITS\10\INCLUDE\10.0.19041.0\UCRT\CORECRT_WSTDIO.H
C:\PROGRAM FILES (X86)\WINDOWS KITS\10\INCLUDE\10.0.19041.0\UCRT\CORECRT_STDIO_CONFIG.H
D:\PROGRAM FILES\VISUAL\VC\TOOLS\MSVC\14.31.31103\INCLUDE\ITERATOR
D:\PROGRAM FILES\VISUAL\VC\TOOLS\MSVC\14.31.31103\INCLUDE\IOSFWD
D:\PROGRAM FILES\VISUAL\VC\TOOLS\MSVC\14.31.31103\INCLUDE\CSTRING
C:\PROGRAM FILES (X86)\WINDOWS KITS\10\INCLUDE\10.0.19041.0\UCRT\STRING.H
C:\PROGRAM FILES (X86)\WINDOWS KITS\10\INCLUDE\10.0.19041.0\UCRT\CORECRT_MEMORY.H
C:\PROGRAM FILES (X86)\WINDOWS KITS\10\INCLUDE\10.0.19041.0\UCRT\CORECRT_MEMCPY_S.H
C:\PROGRAM FILES (X86)\WINDOWS KITS\10\INCLUDE\10.0.19041.0\UCRT\ERRNO.H
D:\PROGRAM FILES\VISUAL\VC\TOOLS\MSVC\14.31.31103\INCLUDE\VCRUNTIME_STRING.H
C:\PROGRAM FILES (X86)\WINDOWS KITS\10\INCLUDE\10.0.19041.0\UCRT\CORECRT_WSTRING.H
D:\PROGRAM FILES\VISUAL\VC\TOOLS\MSVC\14.31.31103\INCLUDE\CWCHAR
C:\PROGRAM FILES (X86)\WINDOWS KITS\10\INCLUDE\10.0.19041.0\UCRT\WCHAR.H
C:\PROGRAM FILES (X86)\WINDOWS KITS\10\INCLUDE\10.0.19041.0\UCRT\CORECRT_WCONIO.H
C:\PROGRAM FILES (X86)\WINDOWS KITS\10\INCLUDE\10.0.19041.0\UCRT\CORECRT_WCTYPE.H
C:\PROGRAM FILES (X86)\WINDOWS KITS\10\INCLUDE\10.0.19041.0\UCRT\CORECRT_WDIRECT.H
C:\PROGRAM FILES (X86)\WINDOWS KITS\10\INCLUDE\10.0.19041.0\UCRT\CORECRT_WIO.H
C:\PROGRAM FILES (X86)\WINDOWS KITS\10\INCLUDE\10.0.19041.0\UCRT\CORECRT_SHARE.H
C:\PROGRAM FILES (X86)\WINDOWS KITS\10\INCLUDE\10.0.19041.0\UCRT\CORECRT_WPROCESS.H
C:\PROGRAM FILES (X86)\WINDOWS KITS\10\INCLUDE\10.0.19041.0\UCRT\CORECRT_WTIME.H
C:\PROGRAM FILES (X86)\WINDOWS KITS\10\INCLUDE\10.0.19041.0\UCRT\SYS\STAT.H
C:\PROGRAM FILES (X86)\WINDOWS KITS\10\INCLUDE\10.0.19041.0\UCRT\SYS\TYPES.H
D:\PROGRAM FILES\VISUAL\VC\TOOLS\MSVC\14.31.31103\INCLUDE\XSTDDEF
D:\PROGRAM FILES\VISUAL\VC\TOOLS\MSVC\14.31.31103\INCLUDE\CSTDDEF
D:\PROGRAM FILES\VISUAL\VC\TOOLS\MSVC\14.31.31103\INCLUDE\INITIALIZER_LIST
D:\PROGRAM FILES\VISUAL\VC\TOOLS\MSVC\14.31.31103\INCLUDE\XUTILITY
D:\PROGRAM FILES\VISUAL\VC\TOOLS\MSVC\14.31.31103\INCLUDE\UTILITY
D:\PROGRAM FILES\VISUAL\VC\TOOLS\MSVC\14.31.31103\INCLUDE\TYPE_TRAITS
D:\PROGRAM FILES\VISUAL\VC\TOOLS\MSVC\14.31.31103\INCLUDE\CSTDINT
D:\PROGRAM FILES\VISUAL\VC\TOOLS\MSVC\14.31.31103\INCLUDE\STDINT.H
D:\PROGRAM FILES\VISUAL\VC\TOOLS\MSVC\14.31.31103\INCLUDE\STREAMBUF
D:\PROGRAM FILES\VISUAL\VC\TOOLS\MSVC\14.31.31103\INCLUDE\XIOSBASE
C:\PROGRAM FILES (X86)\WINDOWS KITS\10\INCLUDE\10.0.19041.0\UCRT\SHARE.H
D:\PROGRAM FILES\VISUAL\VC\TOOLS\MSVC\14.31.31103\INCLUDE\SYSTEM_ERROR
D:\PROGRAM FILES\VISUAL\VC\TOOLS\MSVC\14.31.31103\INCLUDE\__MSVC_SYSTEM_ERROR_ABI.HPP
D:\PROGRAM FILES\VISUAL\VC\TOOLS\MSVC\14.31.31103\INCLUDE\CERRNO
D:\PROGRAM FILES\VISUAL\VC\TOOLS\MSVC\14.31.31103\INCLUDE\STDEXCEPT
D:\PROGRAM FILES\VISUAL\VC\TOOLS\MSVC\14.31.31103\INCLUDE\EXCEPTION
C:\PROGRAM FILES (X86)\WINDOWS KITS\10\INCLUDE\10.0.19041.0\UCRT\MALLOC.H
D:\PROGRAM FILES\VISUAL\VC\TOOLS\MSVC\14.31.31103\INCLUDE\VCRUNTIME_EXCEPTION.H
D:\PROGRAM FILES\VISUAL\VC\TOOLS\MSVC\14.31.31103\INCLUDE\EH.H
C:\PROGRAM FILES (X86)\WINDOWS KITS\10\INCLUDE\10.0.19041.0\UCRT\CORECRT_TERMINATE.H
D:\PROGRAM FILES\VISUAL\VC\TOOLS\MSVC\14.31.31103\INCLUDE\XSTRING
D:\PROGRAM FILES\VISUAL\VC\TOOLS\MSVC\14.31.31103\INCLUDE\XMEMORY
D:\PROGRAM FILES\VISUAL\VC\TOOLS\MSVC\14.31.31103\INCLUDE\LIMITS
D:\PROGRAM FILES\VISUAL\VC\TOOLS\MSVC\14.31.31103\INCLUDE\CFLOAT
C:\PROGRAM FILES (X86)\WINDOWS KITS\10\INCLUDE\10.0.19041.0\UCRT\FLOAT.H
D:\PROGRAM FILES\VISUAL\VC\TOOLS\MSVC\14.31.31103\INCLUDE\ISA_AVAILABILITY.H
D:\PROGRAM FILES\VISUAL\VC\TOOLS\MSVC\14.31.31103\INCLUDE\NEW
D:\PROGRAM FILES\VISUAL\VC\TOOLS\MSVC\14.31.31103\INCLUDE\XATOMIC.H
D:\PROGRAM FILES\VISUAL\VC\TOOLS\MSVC\14.31.31103\INCLUDE\XCALL_ONCE.H
D:\PROGRAM FILES\VISUAL\VC\TOOLS\MSVC\14.31.31103\INCLUDE\XERRC.H
D:\PROGRAM FILES\VISUAL\VC\TOOLS\MSVC\14.31.31103\INCLUDE\ATOMIC
D:\PROGRAM FILES\VISUAL\VC\TOOLS\MSVC\14.31.31103\INCLUDE\XTHREADS.H
D:\PROGRAM FILES\VISUAL\VC\TOOLS\MSVC\14.31.31103\INCLUDE\XTIMEC.H
D:\PROGRAM FILES\VISUAL\VC\TOOLS\MSVC\14.31.31103\INCLUDE\CTIME
C:\PROGRAM FILES (X86)\WINDOWS KITS\10\INCLUDE\10.0.19041.0\UCRT\TIME.H
D:\PROGRAM FILES\VISUAL\VC\TOOLS\MSVC\14.31.31103\INCLUDE\XLOCALE
D:\PROGRAM FILES\VISUAL\VC\TOOLS\MSVC\14.31.31103\INCLUDE\MEMORY
D:\PROGRAM FILES\VISUAL\VC\TOOLS\MSVC\14.31.31103\INCLUDE\TYPEINFO
D:\PROGRAM FILES\VISUAL\VC\TOOLS\MSVC\14.31.31103\INCLUDE\VCRUNTIME_TYPEINFO.H
D:\PROGRAM FILES\VISUAL\VC\TOOLS\MSVC\14.31.31103\INCLUDE\XFACET
D:\PROGRAM FILES\VISUAL\VC\TOOLS\MSVC\14.31.31103\INCLUDE\XLOCINFO
D:\PROGRAM FILES\VISUAL\VC\TOOLS\MSVC\14.31.31103\INCLUDE\__MSVC_XLOCINFO_TYPES.HPP
D:\PROGRAM FILES\VISUAL\VC\TOOLS\MSVC\14.31.31103\INCLUDE\CCTYPE
C:\PROGRAM FILES (X86)\WINDOWS KITS\10\INCLUDE\10.0.19041.0\UCRT\CTYPE.H
D:\PROGRAM FILES\VISUAL\VC\TOOLS\MSVC\14.31.31103\INCLUDE\CLOCALE
C:\PROGRAM FILES (X86)\WINDOWS KITS\10\INCLUDE\10.0.19041.0\UCRT\LOCALE.H
D:\PROGRAM FILES\VISUAL\VC\TOOLS\MSVC\14.31.31103\INCLUDE\VECTOR
