^D:\IT\TOP\HOMEWORK\PROJECTS C++\ARRAYLIST\ARRAYLIST\X64\DEBUG\ARRAY.OBJ|D:\IT\TOP\HOMEWORK\PROJECTS C++\ARRAYLIST\ARRAYLIST\X64\DEBUG\ARRAYLIST.OBJ
D:\IT\TOP\HOMEWORK\PROJECTS C++\ARRAYLIST\X64\DEBUG\ARRAYLIST.EXE
D:\IT\TOP\HOMEWORK\PROJECTS C++\ARRAYLIST\ARRAYLIST\X64\DEBUG\ARRAYLIST.ILK
D:\IT\TOP\HOMEWORK\PROJECTS C++\ARRAYLIST\X64\DEBUG\ARRAYLIST.PDB
