^D:\IT\TOP\HOMEWORK\PROJECTS C++\UPGRADEFRACTION\UPGRADEFRACTION\X64\DEBUG\FRACTION.OBJ|D:\IT\TOP\HOMEWORK\PROJECTS C++\UPGRADEFRACTION\UPGRADEFRACTION\X64\DEBUG\UPGRADEFRACTION.OBJ
C:\PROGRAM FILES (X86)\WINDOWS KITS\10\LIB\10.0.19041.0\UM\X64\KERNEL32.LIB
C:\PROGRAM FILES (X86)\WINDOWS KITS\10\LIB\10.0.19041.0\UM\X64\USER32.LIB
C:\PROGRAM FILES (X86)\WINDOWS KITS\10\LIB\10.0.19041.0\UM\X64\GDI32.LIB
C:\PROGRAM FILES (X86)\WINDOWS KITS\10\LIB\10.0.19041.0\UM\X64\WINSPOOL.LIB
C:\PROGRAM FILES (X86)\WINDOWS KITS\10\LIB\10.0.19041.0\UM\X64\COMDLG32.LIB
C:\PROGRAM FILES (X86)\WINDOWS KITS\10\LIB\10.0.19041.0\UM\X64\ADVAPI32.LIB
C:\PROGRAM FILES (X86)\WINDOWS KITS\10\LIB\10.0.19041.0\UM\X64\SHELL32.LIB
C:\PROGRAM FILES (X86)\WINDOWS KITS\10\LIB\10.0.19041.0\UM\X64\OLE32.LIB
C:\PROGRAM FILES (X86)\WINDOWS KITS\10\LIB\10.0.19041.0\UM\X64\OLEAUT32.LIB
C:\PROGRAM FILES (X86)\WINDOWS KITS\10\LIB\10.0.19041.0\UM\X64\UUID.LIB
C:\PROGRAM FILES (X86)\WINDOWS KITS\10\LIB\10.0.19041.0\UM\X64\ODBC32.LIB
C:\PROGRAM FILES (X86)\WINDOWS KITS\10\LIB\10.0.19041.0\UM\X64\ODBCCP32.LIB
D:\IT\TOP\HOMEWORK\PROJECTS C++\UPGRADEFRACTION\UPGRADEFRACTION\X64\DEBUG\FRACTION.OBJ
D:\IT\TOP\HOMEWORK\PROJECTS C++\UPGRADEFRACTION\UPGRADEFRACTION\X64\DEBUG\UPGRADEFRACTION.OBJ
D:\IT\TOP\HOMEWORK\PROJECTS C++\UPGRADEFRACTION\UPGRADEFRACTION\X64\DEBUG\UPGRADEFRACTION.ILK
C:\WINDOWS\SYSTEM32\TZRES.DLL
C:\WINDOWS\GLOBALIZATION\SORTING\SORTDEFAULT.NLS
D:\PROGRAM FILES\VISUAL\VC\TOOLS\MSVC\14.31.31103\LIB\X64\MSVCPRTD.LIB
D:\PROGRAM FILES\VISUAL\VC\TOOLS\MSVC\14.31.31103\LIB\X64\MSVCRTD.LIB
D:\PROGRAM FILES\VISUAL\VC\TOOLS\MSVC\14.31.31103\LIB\X64\OLDNAMES.LIB
D:\PROGRAM FILES\VISUAL\VC\TOOLS\MSVC\14.31.31103\LIB\X64\VCRUNTIMED.LIB
C:\PROGRAM FILES (X86)\WINDOWS KITS\10\LIB\10.0.19041.0\UCRT\X64\UCRTD.LIB
D:\IT\TOP\HOMEWORK\PROJECTS C++\UPGRADEFRACTION\UPGRADEFRACTION\X64\DEBUG\VC143.PDB
