^D:\IT\TOP\HOMEWORK\PROJECTS C++\UPDATESTRING\UPDATESTRING\X64\DEBUG\STRING.OBJ|D:\IT\TOP\HOMEWORK\PROJECTS C++\UPDATESTRING\UPDATESTRING\X64\DEBUG\UPDATESTRING.OBJ
/OUT:"D:\IT\TOP\HOMEWORK\PROJECTS C++\UPDATESTRING\X64\DEBUG\UPDATESTRING.EXE" /INCREMENTAL /ILK:"X64\DEBUG\UPDATESTRING.ILK" /NOLOGO KERNEL32.LIB USER32.LIB GDI32.LIB WINSPOOL.LIB COMDLG32.LIB ADVAPI32.LIB SHELL32.LIB OLE32.LIB OLEAUT32.LIB UUID.LIB ODBC32.LIB ODBCCP32.LIB /MANIFEST /MANIFESTUAC:"level='asInvoker' uiAccess='false'" /manifest:embed /DEBUG /PDB:"D:\IT\TOP\HOMEWORK\PROJECTS C++\UPDATESTRING\X64\DEBUG\UPDATESTRING.PDB" /SUBSYSTEM:CONSOLE /TLBID:1 /DYNAMICBASE /NXCOMPAT /IMPLIB:"D:\IT\TOP\HOMEWORK\PROJECTS C++\UPDATESTRING\X64\DEBUG\UPDATESTRING.LIB" /MACHINE:X64 X64\DEBUG\STRING.OBJ
X64\DEBUG\UPDATESTRING.OBJ
